<?xml version="1.0" standalone="no"?>
<!DOCTYPE svg PUBLIC "-//W3C//DTD SVG 1.1//EN" "http://www.w3.org/Graphics/SVG/1.1/DTD/svg11.dtd">
<svg xmlns="http://www.w3.org/2000/svg">
<metadata>Copyright (C) 2021 by original authors @ fontello.com</metadata>
<defs>
<font id="fontello" horiz-adv-x="1000" >
<font-face font-family="fontello" font-weight="400" font-stretch="normal" units-per-em="1000" ascent="850" descent="-150" />
<missing-glyph horiz-adv-x="1000" />
<glyph glyph-name="angle-left" unicode="&#xf104;" d="M350 546q0-7-6-12l-219-220 219-219q6-6 6-13t-6-13l-28-28q-5-5-12-5t-13 5l-260 261q-6 5-6 12t6 13l260 260q5 6 13 6t12-6l28-28q6-5 6-13z" horiz-adv-x="357.1" />

<glyph glyph-name="angle-right" unicode="&#xf105;" d="M332 314q0-7-5-12l-261-261q-5-5-12-5t-13 5l-28 28q-6 6-6 13t6 13l219 219-219 220q-6 5-6 12t6 13l28 28q5 6 13 6t12-6l261-260q5-5 5-13z" horiz-adv-x="357.1" />

<glyph glyph-name="gh" unicode="&#xf113;" d="M357 171q0-22-7-45t-24-43-40-19-41 19-24 43-7 45 7 46 24 43 41 19 40-19 24-43 7-46z m357 0q0-22-7-45t-24-43-40-19-41 19-24 43-7 45 7 46 24 43 41 19 40-19 24-43 7-46z m90 0q0 67-39 114t-104 47q-23 0-109-12-40-6-88-6t-87 6q-85 12-109 12-66 0-104-47t-39-114q0-49 18-85t45-58 68-33 78-17 83-4h94q46 0 83 4t78 17 69 33 45 58 18 85z m125 99q0-116-34-185-22-43-59-74t-79-48-95-27-96-12-93-3q-43 0-79 2t-82 7-85 17-77 29-67 45-48 64q-35 69-35 185 0 132 76 221-15 45-15 95 0 64 28 121 61 0 106-22t106-69q82 20 172 20 83 0 157-18 58 46 104 67t105 22q29-57 29-121 0-49-15-94 76-89 76-222z" horiz-adv-x="928.6" />

<glyph glyph-name="git" unicode="&#xf1d3;" d="M332 5q0 56-92 56-88 0-88-58 0-57 96-57 84 0 84 59z m-33 422q0 34-17 56t-49 23q-69 0-69-81 0-75 69-75 66 0 66 77z m150 180v-112q-20-7-44-13 9-24 9-47 0-70-41-120t-110-63q-22-5-33-15t-11-33q0-17 13-28t32-18 44-12 48-15 44-21 32-35 13-55q0-170-203-170-38 0-72 7t-65 23-49 46-18 71q0 92 102 125v3q-38 22-38 70 0 61 35 76v3q-40 13-66 60t-27 93q0 77 53 129t131 51q54 0 100-26 54 0 121 26z m178-491h-124q2 25 2 74v340q0 53-2 72h124q-3-19-3-69v-343q0-49 3-74z m335 124v-110q-40-22-97-22-35 0-60 12t-39 27-22 44-10 51-2 58v196h1v2q-4 0-11 0t-10 1q-12 0-33-3v106h54v42q0 30-4 50h127q-3-23-3-92h95v-106q-8 0-24 1t-24 1h-47v-204q0-73 48-73 34 0 61 19z m-321 528q0-32-22-57t-54-24q-32 0-54 24t-23 57q0 33 22 57t55 25q33 0 54-25t22-57z" horiz-adv-x="1000" />
</font>
</defs>
</svg>